Containers:
  [+] MainContainer:
   |            ID: 0x0000000000000000
   |        Bounds: IsValid=false, Min=(X=0.000 Y=0.000 Z=0.000), Max=(X=0.000 Y=0.000 Z=0.000)
   |     Transform: 0.000000,0.000000,0.000000|0.000000,0.000000,-0.000000|1.000000,1.000000,1.000000
   |     Container: /Game/FirstPerson/Maps/FirstPersonMap
   |  ActorDescs:
   |      - Guid:0482E0744625192B32AFA882C0C1417D Class:StaticMeshActor Name:StaticMeshActor_6 SpatiallyLoaded:true Bounds:IsValid=true, Min=(X=257.548 Y=2127.548 Z=0.063), Max=(X=462.452 Y=2332.452 Z=150.063) RuntimeGrid:None EditorOnly:false LevelBoundsRelevant:true HLODRelevant:false FolderPath:SimulatedCubes FolderGuid:3E37B3AC41F495FF33672D878D9DD948 Parent:00000000000000000000000000000000
   |      - Guid:0635C40649DD1B5B6E64B9B392558833 Class:StaticMeshActor Name:StaticMeshActor_33 SpatiallyLoaded:true Bounds:IsValid=true, Min=(X=2313.116 Y=1273.116 Z=0.063), Max=(X=2486.884 Y=1446.884 Z=150.063) RuntimeGrid:None EditorOnly:false LevelBoundsRelevant:true HLODRelevant:false FolderPath:SimulatedCubes FolderGuid:3E37B3AC41F495FF33672D878D9DD948 Parent:00000000000000000000000000000000
   |      - Guid:09D09F0E47E479EEB812029DAF672204 Class:StaticMeshActor Name:StaticMeshActor_46 SpatiallyLoaded:true Bounds:IsValid=true, Min=(X=343.798 Y=1188.520 Z=100.013), Max=(X=471.969 Y=1316.691 Z=200.013) RuntimeGrid:None EditorOnly:false LevelBoundsRelevant:true HLODRelevant:false FolderPath:SimulatedCubes FolderGuid:3E37B3AC41F495FF33672D878D9DD948 Parent:00000000000000000000000000000000
   |      - Guid:13E2C26C4FE1D29E6432AFBCDA66F460 Class:Actor Name:BP_Rifle_C_UAID_244BFEE03191D70F01_1281435850 SpatiallyLoaded:true Bounds:IsValid=true, Min=(X=1208.000 Y=1088.000 Z=88.000), Max=(X=1272.000 Y=1177.440 Z=152.000) RuntimeGrid:None EditorOnly:false LevelBoundsRelevant:true HLODRelevant:false FolderPath:None FolderGuid:00000000000000000000000000000000 Parent:00000000000000000000000000000000
   |      - Guid:13F40C7241F9A80D3E971DBC21FCAFB0 Class:SkyAtmosphere Name:SkyAtmosphere_0 SpatiallyLoaded:false Bounds:IsValid=true, Min=(X=0.000 Y=0.000 Z=1020.000), Max=(X=0.000 Y=0.000 Z=1020.000) RuntimeGrid:None EditorOnly:false LevelBoundsRelevant:false HLODRelevant:false FolderPath:Lighting FolderGuid:D9E1224C415FCB205E4105B3245ADAAB Parent:00000000000000000000000000000000
   |      - Guid:16ED739D4160B0315F9149963D1D3D52 Class:StaticMeshActor Name:StaticMeshActor_5 SpatiallyLoaded:true Bounds:IsValid=true, Min=(X=1945.000 Y=400.000 Z=0.000), Max=(X=2345.000 Y=600.000 Z=100.000) RuntimeGrid:None EditorOnly:false LevelBoundsRelevant:true HLODRelevant:true FolderPath:Block01 FolderGuid:3EF5C57D40A467440F5F0D9398D8AC70 Parent:00000000000000000000000000000000
   |      - Guid:1AD0648D47C79CDBBFC4B889BA3235AD Class:StaticMeshActor Name:StaticMeshActor_21 SpatiallyLoaded:true Bounds:IsValid=true, Min=(X=2100.000 Y=2750.000 Z=0.000), Max=(X=2300.000 Y=2950.000 Z=200.000) RuntimeGrid:None EditorOnly:false LevelBoundsRelevant:true HLODRelevant:true FolderPath:Cylinder FolderGuid:D6369CCE49EF0A8CFA563EB18825ED72 Parent:00000000000000000000000000000000
   |      - Guid:22C4F1724348A3818BBA0A939CA01B63 Class:WorldDataLayers Name:WorldDataLayers SpatiallyLoaded:false Bounds:IsValid=true, Min=(X=0.000 Y=0.000 Z=0.000), Max=(X=0.000 Y=0.000 Z=0.000) RuntimeGrid:None EditorOnly:false LevelBoundsRelevant:false HLODRelevant:false FolderPath:None FolderGuid:00000000000000000000000000000000 Parent:00000000000000000000000000000000
   |      - Guid:266836F144FA2767EA2991A084FC7C51 Class:StaticMeshActor Name:StaticMeshActor_8 SpatiallyLoaded:true Bounds:IsValid=true, Min=(X=2900.000 Y=100.000 Z=0.000), Max=(X=3000.000 Y=3400.000 Z=400.000) RuntimeGrid:None EditorOnly:false LevelBoundsRelevant:true HLODRelevant:true FolderPath:Playground FolderGuid:CDC3EA2D424DF73175D386948543BF31 Parent:00000000000000000000000000000000
   |      - Guid:27E6C605415908F1A2EE54974FAF1E36 Class:StaticMeshActor Name:StaticMeshActor_11 SpatiallyLoaded:true Bounds:IsValid=true, Min=(X=2345.000 Y=600.000 Z=100.000), Max=(X=2545.000 Y=1000.000 Z=200.000) RuntimeGrid:None EditorOnly:false LevelBoundsRelevant:true HLODRelevant:true FolderPath:Block01 FolderGuid:3EF5C57D40A467440F5F0D9398D8AC70 Parent:00000000000000000000000000000000
   |      - Guid:36DA8D2C4B2585DD71BFF583CFB51CFA Class:TextRenderActor Name:TextRenderActor_0 SpatiallyLoaded:true Bounds:IsValid=true, Min=(X=-0.100 Y=1100.000 Z=65.013), Max=(X=-0.100 Y=2363.461 Z=215.013) RuntimeGrid:None EditorOnly:false LevelBoundsRelevant:true HLODRelevant:false FolderPath:None FolderGuid:00000000000000000000000000000000 Parent:00000000000000000000000000000000
   |      - Guid:3AE20ADB41F450F1E99EA7A1B45D4E6F Class:StaticMeshActor Name:StaticMeshActor_40 SpatiallyLoaded:true Bounds:IsValid=true, Min=(X=250.297 Y=3094.568 Z=100.013), Max=(X=391.180 Y=3235.451 Z=200.013) RuntimeGrid:None EditorOnly:false LevelBoundsRelevant:true HLODRelevant:false FolderPath:SimulatedCubes FolderGuid:3E37B3AC41F495FF33672D878D9DD948 Parent:00000000000000000000000000000000
   |      - Guid:3E03AECD492F372DF0EF1FA189C1DEDA Class:StaticMeshActor Name:StaticMeshActor_12 SpatiallyLoaded:true Bounds:IsValid=true, Min=(X=2345.000 Y=1000.000 Z=100.000), Max=(X=2545.000 Y=1100.000 Z=200.000) RuntimeGrid:None EditorOnly:false LevelBoundsRelevant:true HLODRelevant:true FolderPath:Block01 FolderGuid:3EF5C57D40A467440F5F0D9398D8AC70 Parent:00000000000000000000000000000000
   |      - Guid:416210044F8807AE27B83CAA205F302F Class:StaticMeshActor Name:StaticMeshActor_29 SpatiallyLoaded:true Bounds:IsValid=true, Min=(X=1800.000 Y=1600.000 Z=0.000), Max=(X=2900.000 Y=1900.000 Z=200.000) RuntimeGrid:None EditorOnly:false LevelBoundsRelevant:true HLODRelevant:true FolderPath:Block02 FolderGuid:DEBAF5964E47F6C0EEA7BB9F700AB405 Parent:00000000000000000000000000000000
   |      - Guid:44F8F21D453B2046F1D986AD81798F12 Class:StaticMeshActor Name:StaticMeshActor_41 SpatiallyLoaded:true Bounds:IsValid=true, Min=(X=2480.411 Y=2302.371 Z=0.013), Max=(X=2580.411 Y=2402.371 Z=100.013) RuntimeGrid:None EditorOnly:false LevelBoundsRelevant:true HLODRelevant:false FolderPath:SimulatedCubes FolderGuid:3E37B3AC41F495FF33672D878D9DD948 Parent:00000000000000000000000000000000
   |      - Guid:4DE3CD2F48B4038CA629008DF7804DA4 Class:StaticMeshActor Name:StaticMeshActor_18 SpatiallyLoaded:true Bounds:IsValid=true, Min=(X=600.000 Y=2800.000 Z=0.000), Max=(X=700.000 Y=2900.000 Z=200.000) RuntimeGrid:None EditorOnly:false LevelBoundsRelevant:true HLODRelevant:true FolderPath:Block03 FolderGuid:EED76D7B47CF3E1440F359A1FAC3309E Parent:00000000000000000000000000000000
   |      - Guid:52E74DF94E9EECAF9464C1BCB5227CCC Class:StaticMeshActor Name:StaticMeshActor_3 SpatiallyLoaded:true Bounds:IsValid=true, Min=(X=0.000 Y=3400.000 Z=0.000), Max=(X=3000.000 Y=3500.000 Z=400.000) RuntimeGrid:None EditorOnly:false LevelBoundsRelevant:true HLODRelevant:true FolderPath:Playground FolderGuid:CDC3EA2D424DF73175D386948543BF31 Parent:00000000000000000000000000000000
   |      - Guid:616554B84D9AF28DF69ABD8837FD26D7 Class:ExponentialHeightFog Name:ExponentialHeightFog_0 SpatiallyLoaded:false Bounds:IsValid=true, Min=(X=-5600.000 Y=-50.000 Z=-6850.000), Max=(X=-5600.000 Y=-50.000 Z=-6850.000) RuntimeGrid:None EditorOnly:false LevelBoundsRelevant:false HLODRelevant:false FolderPath:Lighting FolderGuid:D9E1224C415FCB205E4105B3245ADAAB Parent:00000000000000000000000000000000
   |      - Guid:63A84EA944945A8BF01D4A94FDD5C8E4 Class:StaticMeshActor Name:StaticMeshActor_10 SpatiallyLoaded:true Bounds:IsValid=true, Min=(X=2345.000 Y=400.000 Z=0.000), Max=(X=2545.000 Y=1100.000 Z=100.000) RuntimeGrid:None EditorOnly:false LevelBoundsRelevant:true HLODRelevant:true FolderPath:Block01 FolderGuid:3EF5C57D40A467440F5F0D9398D8AC70 Parent:00000000000000000000000000000000
   |      - Guid:6456ADDD428A590141FABFB9484712AA Class:PostProcessVolume Name:PostProcessVolume_0 SpatiallyLoaded:false Bounds:IsValid=true, Min=(X=0.000 Y=0.000 Z=400.000), Max=(X=200.000 Y=200.000 Z=600.000) RuntimeGrid:None EditorOnly:false LevelBoundsRelevant:false HLODRelevant:false FolderPath:Lighting FolderGuid:D9E1224C415FCB205E4105B3245ADAAB Parent:00000000000000000000000000000000
   |      - Guid:67AF28334B1DECF39B2B08AC61E95805 Class:StaticMeshActor Name:StaticMeshActor_32 SpatiallyLoaded:true Bounds:IsValid=true, Min=(X=1700.000 Y=1700.000 Z=0.000), Max=(X=1800.000 Y=1800.000 Z=200.000) RuntimeGrid:None EditorOnly:false LevelBoundsRelevant:true HLODRelevant:true FolderPath:Block02 FolderGuid:DEBAF5964E47F6C0EEA7BB9F700AB405 Parent:00000000000000000000000000000000
   |      - Guid:6BA9F8ED462024EB6CFFB38740F530B7 Class:StaticMeshActor Name:StaticMeshActor_35 SpatiallyLoaded:true Bounds:IsValid=true, Min=(X=1800.000 Y=1900.000 Z=0.000), Max=(X=2900.000 Y=2000.000 Z=200.000) RuntimeGrid:None EditorOnly:false LevelBoundsRelevant:true HLODRelevant:true FolderPath:Block02 FolderGuid:DEBAF5964E47F6C0EEA7BB9F700AB405 Parent:00000000000000000000000000000000
   |      - Guid:7254C3414876BF4F9B9A42A6CA10EB17 Class:StaticMeshActor Name:StaticMeshActor_28 SpatiallyLoaded:true Bounds:IsValid=true, Min=(X=1300.000 Y=2700.000 Z=0.000), Max=(X=1400.000 Y=2800.000 Z=200.000) RuntimeGrid:None EditorOnly:false LevelBoundsRelevant:true HLODRelevant:true FolderPath:Block03 FolderGuid:EED76D7B47CF3E1440F359A1FAC3309E Parent:00000000000000000000000000000000
   |      - Guid:75854521468783C291995A8EFCB63F1B Class:StaticMeshActor Name:StaticMeshActor_7 SpatiallyLoaded:true Bounds:IsValid=true, Min=(X=-0.000 Y=100.000 Z=0.000), Max=(X=100.000 Y=3400.000 Z=400.000) RuntimeGrid:None EditorOnly:false LevelBoundsRelevant:true HLODRelevant:true FolderPath:Playground FolderGuid:CDC3EA2D424DF73175D386948543BF31 Parent:00000000000000000000000000000000
   |      - Guid:79599D7C4FAEDB9F068EA3B957603F53 Class:StaticMeshActor Name:StaticMeshActor_31 SpatiallyLoaded:true Bounds:IsValid=true, Min=(X=1700.000 Y=1800.000 Z=0.000), Max=(X=1800.000 Y=1900.000 Z=200.000) RuntimeGrid:None EditorOnly:false LevelBoundsRelevant:true HLODRelevant:true FolderPath:Block02 FolderGuid:DEBAF5964E47F6C0EEA7BB9F700AB405 Parent:00000000000000000000000000000000
   |      - Guid:7A699BF944F9DAC273FB4FAD2236D7F8 Class:SkyLight Name:SkyLight_0 SpatiallyLoaded:false Bounds:IsValid=true, Min=(X=0.000 Y=0.000 Z=690.000), Max=(X=0.000 Y=0.000 Z=690.000) RuntimeGrid:None EditorOnly:false LevelBoundsRelevant:false HLODRelevant:false FolderPath:Lighting FolderGuid:D9E1224C415FCB205E4105B3245ADAAB Parent:00000000000000000000000000000000
   |      - Guid:88D1957648249294C60E2F98A5BA851A Class:StaticMeshActor Name:StaticMeshActor_36 SpatiallyLoaded:true Bounds:IsValid=true, Min=(X=1191.292 Y=329.199 Z=0.013), Max=(X=1327.894 Y=465.801 Z=100.013) RuntimeGrid:None EditorOnly:false LevelBoundsRelevant:true HLODRelevant:false FolderPath:SimulatedCubes FolderGuid:3E37B3AC41F495FF33672D878D9DD948 Parent:00000000000000000000000000000000
   |      - Guid:89BD2B584901CC36ABEF55B6F6BB2F67 Class:StaticMeshActor Name:StaticMeshActor_27 SpatiallyLoaded:true Bounds:IsValid=true, Min=(X=1300.000 Y=2600.000 Z=0.000), Max=(X=1400.000 Y=2700.000 Z=200.000) RuntimeGrid:None EditorOnly:false LevelBoundsRelevant:true HLODRelevant:true FolderPath:Block03 FolderGuid:EED76D7B47CF3E1440F359A1FAC3309E Parent:00000000000000000000000000000000
   |      - Guid:8DB6E7264339F17149C350BAAAD12B37 Class:StaticMeshActor Name:StaticMeshActor_13 SpatiallyLoaded:true Bounds:IsValid=true, Min=(X=700.000 Y=2600.000 Z=0.000), Max=(X=1300.000 Y=2900.000 Z=200.000) RuntimeGrid:None EditorOnly:false LevelBoundsRelevant:true HLODRelevant:true FolderPath:Block03 FolderGuid:EED76D7B47CF3E1440F359A1FAC3309E Parent:00000000000000000000000000000000
   |      - Guid:8DC9085B48888A70B9B853B915B851AF Class:StaticMeshActor Name:StaticMeshActor_26 SpatiallyLoaded:true Bounds:IsValid=true, Min=(X=1300.000 Y=2800.000 Z=0.000), Max=(X=1400.000 Y=2900.000 Z=200.000) RuntimeGrid:None EditorOnly:false LevelBoundsRelevant:true HLODRelevant:true FolderPath:Block03 FolderGuid:EED76D7B47CF3E1440F359A1FAC3309E Parent:00000000000000000000000000000000
   |      - Guid:8EA8A3864CB9694DA428199AC421B524 Class:StaticMeshActor Name:StaticMeshActor_20 SpatiallyLoaded:true Bounds:IsValid=true, Min=(X=2300.000 Y=2750.000 Z=0.000), Max=(X=2500.000 Y=2950.000 Z=200.000) RuntimeGrid:None EditorOnly:false LevelBoundsRelevant:true HLODRelevant:true FolderPath:Cylinder FolderGuid:D6369CCE49EF0A8CFA563EB18825ED72 Parent:00000000000000000000000000000000
   |      - Guid:8F1CB2D344FBCA46B23C6594C8F43B92 Class:StaticMeshActor Name:StaticMeshActor_39 SpatiallyLoaded:true Bounds:IsValid=true, Min=(X=204.335 Y=3056.000 Z=0.013), Max=(X=345.218 Y=3196.884 Z=100.013) RuntimeGrid:None EditorOnly:false LevelBoundsRelevant:true HLODRelevant:false FolderPath:SimulatedCubes FolderGuid:3E37B3AC41F495FF33672D878D9DD948 Parent:00000000000000000000000000000000
   |      - Guid:902408B24403A7B3DA2315996494FA34 Class:StaticMeshActor Name:StaticMeshActor_42 SpatiallyLoaded:true Bounds:IsValid=true, Min=(X=2480.411 Y=2187.371 Z=0.013), Max=(X=2580.411 Y=2287.371 Z=100.013) RuntimeGrid:None EditorOnly:false LevelBoundsRelevant:true HLODRelevant:false FolderPath:SimulatedCubes FolderGuid:3E37B3AC41F495FF33672D878D9DD948 Parent:00000000000000000000000000000000
   |      - Guid:97FF78FB4EC8F13EF6751DB180B1CE46 Class:DirectionalLight Name:DirectionalLight_0 SpatiallyLoaded:false Bounds:IsValid=true, Min=(X=-1048576.000 Y=-1048576.000 Z=-1048576.000), Max=(X=1048576.000 Y=1048576.000 Z=1048576.000) RuntimeGrid:None EditorOnly:false LevelBoundsRelevant:false HLODRelevant:false FolderPath:Lighting FolderGuid:D9E1224C415FCB205E4105B3245ADAAB Parent:00000000000000000000000000000000
   |      - Guid:9A39EDC343C77468C5DF1A8AAB2BE1AD Class:StaticMeshActor Name:StaticMeshActor_34 SpatiallyLoaded:true Bounds:IsValid=true, Min=(X=100.000 Y=1500.000 Z=0.000), Max=(X=1200.000 Y=1600.000 Z=200.000) RuntimeGrid:None EditorOnly:false LevelBoundsRelevant:true HLODRelevant:true FolderPath:Block04 FolderGuid:1671883140CA233343B73BBD9D365381 Parent:00000000000000000000000000000000
   |      - Guid:9B4A79B644F54A33C8FE0CBBA4859949 Class:StaticMeshActor Name:StaticMeshActor_4 SpatiallyLoaded:true Bounds:IsValid=true, Min=(X=1745.000 Y=600.000 Z=0.000), Max=(X=2345.000 Y=1100.000 Z=200.000) RuntimeGrid:None EditorOnly:false LevelBoundsRelevant:true HLODRelevant:true FolderPath:Block01 FolderGuid:3EF5C57D40A467440F5F0D9398D8AC70 Parent:00000000000000000000000000000000
   |      - Guid:9FC0E5A04B5C426BD8398396952183D3 Class:StaticMeshActor Name:StaticMeshActor_0 SpatiallyLoaded:true Bounds:IsValid=true, Min=(X=0.000 Y=0.000 Z=-50.000), Max=(X=3000.000 Y=3500.000 Z=0.000) RuntimeGrid:None EditorOnly:false LevelBoundsRelevant:true HLODRelevant:true FolderPath:Playground FolderGuid:CDC3EA2D424DF73175D386948543BF31 Parent:00000000000000000000000000000000
   |      - Guid:A193674B480A39A47551D39FB4DFCD99 Class:StaticMeshActor Name:StaticMeshActor_UAID_A4AE111137DC5FFB00_1159438599 SpatiallyLoaded:true Bounds:IsValid=true, Min=(X=-1638400.000 Y=-1638400.000 Z=-1638400.000), Max=(X=1638400.000 Y=1638400.000 Z=1638400.000) RuntimeGrid:None EditorOnly:false LevelBoundsRelevant:true HLODRelevant:true FolderPath:Lighting FolderGuid:D9E1224C415FCB205E4105B3245ADAAB Parent:00000000000000000000000000000000
   |      - Guid:A47CA35549692063DBDEBFADE3843E16 Class:StaticMeshActor Name:StaticMeshActor_38 SpatiallyLoaded:true Bounds:IsValid=true, Min=(X=292.430 Y=3129.921 Z=0.013), Max=(X=433.313 Y=3270.804 Z=100.013) RuntimeGrid:None EditorOnly:false LevelBoundsRelevant:true HLODRelevant:false FolderPath:SimulatedCubes FolderGuid:3E37B3AC41F495FF33672D878D9DD948 Parent:00000000000000000000000000000000
   |      - Guid:A5FCDC664219DC8AAD6D739ADEF9C627 Class:PlayerStart Name:PlayerStart_0 SpatiallyLoaded:false Bounds:IsValid=true, Min=(X=860.000 Y=810.000 Z=0.013), Max=(X=940.000 Y=890.000 Z=184.013) RuntimeGrid:None EditorOnly:false LevelBoundsRelevant:true HLODRelevant:false FolderPath:None FolderGuid:00000000000000000000000000000000 Parent:00000000000000000000000000000000
   |      - Guid:A6C6AB114396B4B6AE5CEBB416930A56 Class:StaticMeshActor Name:StaticMeshActor_30 SpatiallyLoaded:true Bounds:IsValid=true, Min=(X=1700.000 Y=1600.000 Z=0.000), Max=(X=1800.000 Y=1700.000 Z=200.000) RuntimeGrid:None EditorOnly:false LevelBoundsRelevant:true HLODRelevant:true FolderPath:Block02 FolderGuid:DEBAF5964E47F6C0EEA7BB9F700AB405 Parent:00000000000000000000000000000000
   |      - Guid:B326783D46A6A43F55CCC9AB2A4C1863 Class:VolumetricCloud Name:VolumetricCloud_0 SpatiallyLoaded:false Bounds:IsValid=true, Min=(X=0.000 Y=0.000 Z=820.000), Max=(X=0.000 Y=0.000 Z=820.000) RuntimeGrid:None EditorOnly:false LevelBoundsRelevant:false HLODRelevant:false FolderPath:Lighting FolderGuid:D9E1224C415FCB205E4105B3245ADAAB Parent:00000000000000000000000000000000
   |      - Guid:B6F47C254C7BD4D53F5A7BBF28CE9894 Class:StaticMeshActor Name:StaticMeshActor_16 SpatiallyLoaded:true Bounds:IsValid=true, Min=(X=1200.000 Y=1700.000 Z=0.000), Max=(X=1300.000 Y=1800.000 Z=200.000) RuntimeGrid:None EditorOnly:false LevelBoundsRelevant:true HLODRelevant:true FolderPath:Block04 FolderGuid:1671883140CA233343B73BBD9D365381 Parent:00000000000000000000000000000000
   |      - Guid:B96D792F49D1781B2CCBC296053DF329 Class:StaticMeshActor Name:StaticMeshActor_25 SpatiallyLoaded:true Bounds:IsValid=true, Min=(X=1765.431 Y=2937.543 Z=0.063), Max=(X=1976.756 Y=3148.868 Z=150.063) RuntimeGrid:None EditorOnly:false LevelBoundsRelevant:true HLODRelevant:false FolderPath:SimulatedCubes FolderGuid:3E37B3AC41F495FF33672D878D9DD948 Parent:00000000000000000000000000000000
   |      - Guid:BDEA84604C934642275CFC81EFA1A90E Class:StaticMeshActor Name:StaticMeshActor_17 SpatiallyLoaded:true Bounds:IsValid=true, Min=(X=600.000 Y=2600.000 Z=0.000), Max=(X=700.000 Y=2700.000 Z=200.000) RuntimeGrid:None EditorOnly:false LevelBoundsRelevant:true HLODRelevant:true FolderPath:Block03 FolderGuid:EED76D7B47CF3E1440F359A1FAC3309E Parent:00000000000000000000000000000000
   |      - Guid:BFE1ED4B4C04CD63334BA5A9ABCCE217 Class:StaticMeshActor Name:StaticMeshActor_22 SpatiallyLoaded:true Bounds:IsValid=true, Min=(X=2100.000 Y=2550.000 Z=0.000), Max=(X=2300.000 Y=2750.000 Z=200.000) RuntimeGrid:None EditorOnly:false LevelBoundsRelevant:true HLODRelevant:true FolderPath:Cylinder FolderGuid:D6369CCE49EF0A8CFA563EB18825ED72 Parent:00000000000000000000000000000000
   |      - Guid:C01693764E4FCD2C0365EBBA7FAFCFAA Class:StaticMeshActor Name:StaticMeshActor_14 SpatiallyLoaded:true Bounds:IsValid=true, Min=(X=1200.000 Y=1800.000 Z=0.000), Max=(X=1300.000 Y=1900.000 Z=200.000) RuntimeGrid:None EditorOnly:false LevelBoundsRelevant:true HLODRelevant:true FolderPath:Block04 FolderGuid:1671883140CA233343B73BBD9D365381 Parent:00000000000000000000000000000000
   |      - Guid:C1109CDE44E1D9D5C25166B8558AB791 Class:StaticMeshActor Name:StaticMeshActor_15 SpatiallyLoaded:true Bounds:IsValid=true, Min=(X=1200.000 Y=1600.000 Z=0.000), Max=(X=1300.000 Y=1700.000 Z=200.000) RuntimeGrid:None EditorOnly:false LevelBoundsRelevant:true HLODRelevant:true FolderPath:Block04 FolderGuid:1671883140CA233343B73BBD9D365381 Parent:00000000000000000000000000000000
   |      - Guid:C3396C8B492E3A148F603881B2C7314A Class:StaticMeshActor Name:StaticMeshActor_23 SpatiallyLoaded:true Bounds:IsValid=true, Min=(X=2300.000 Y=2550.000 Z=0.000), Max=(X=2500.000 Y=2750.000 Z=200.000) RuntimeGrid:None EditorOnly:false LevelBoundsRelevant:true HLODRelevant:true FolderPath:Cylinder FolderGuid:D6369CCE49EF0A8CFA563EB18825ED72 Parent:00000000000000000000000000000000
   |      - Guid:C83193A44B35A6269065368937C6CA58 Class:StaticMeshActor Name:StaticMeshActor_24 SpatiallyLoaded:true Bounds:IsValid=true, Min=(X=334.338 Y=334.338 Z=0.063), Max=(X=545.662 Y=545.662 Z=150.063) RuntimeGrid:None EditorOnly:false LevelBoundsRelevant:true HLODRelevant:false FolderPath:SimulatedCubes FolderGuid:3E37B3AC41F495FF33672D878D9DD948 Parent:00000000000000000000000000000000
   |      - Guid:C94113E34F64C205CF161482D17BED09 Class:StaticMeshActor Name:StaticMeshActor_9 SpatiallyLoaded:true Bounds:IsValid=true, Min=(X=100.000 Y=1600.000 Z=0.000), Max=(X=1200.000 Y=1900.000 Z=200.000) RuntimeGrid:None EditorOnly:false LevelBoundsRelevant:true HLODRelevant:true FolderPath:Block04 FolderGuid:1671883140CA233343B73BBD9D365381 Parent:00000000000000000000000000000000
   |      - Guid:CBE9C31E462D8F9A0C9AD595F91AEA84 Class:StaticMeshActor Name:StaticMeshActor_44 SpatiallyLoaded:true Bounds:IsValid=true, Min=(X=324.987 Y=1136.837 Z=0.013), Max=(X=453.158 Y=1265.008 Z=100.013) RuntimeGrid:None EditorOnly:false LevelBoundsRelevant:true HLODRelevant:false FolderPath:SimulatedCubes FolderGuid:3E37B3AC41F495FF33672D878D9DD948 Parent:00000000000000000000000000000000
   |      - Guid:CD63E8F54C80F5B0646B39AA2A57AB54 Class:StaticMeshActor Name:StaticMeshActor_37 SpatiallyLoaded:true Bounds:IsValid=true, Min=(X=1139.330 Y=299.199 Z=100.013), Max=(X=1275.933 Y=435.801 Z=200.013) RuntimeGrid:None EditorOnly:false LevelBoundsRelevant:true HLODRelevant:false FolderPath:SimulatedCubes FolderGuid:3E37B3AC41F495FF33672D878D9DD948 Parent:00000000000000000000000000000000
   |      - Guid:CDC290334FAA2557343A1181CA8C7F4B Class:StaticMeshActor Name:StaticMeshActor_2 SpatiallyLoaded:true Bounds:IsValid=true, Min=(X=0.000 Y=0.000 Z=0.000), Max=(X=3000.000 Y=100.000 Z=400.000) RuntimeGrid:None EditorOnly:false LevelBoundsRelevant:true HLODRelevant:true FolderPath:Playground FolderGuid:CDC3EA2D424DF73175D386948543BF31 Parent:00000000000000000000000000000000
   |      - Guid:DCA520434139010B85E89E846066DFAF Class:StaticMeshActor Name:StaticMeshActor_1 SpatiallyLoaded:true Bounds:IsValid=true, Min=(X=1091.699 Y=271.699 Z=0.013), Max=(X=1228.301 Y=408.301 Z=100.013) RuntimeGrid:None EditorOnly:false LevelBoundsRelevant:true HLODRelevant:false FolderPath:SimulatedCubes FolderGuid:3E37B3AC41F495FF33672D878D9DD948 Parent:00000000000000000000000000000000
   |      - Guid:EE86EAAC4E5C9776978688BE7E96F154 Class:StaticMeshActor Name:StaticMeshActor_43 SpatiallyLoaded:true Bounds:IsValid=true, Min=(X=2480.411 Y=2247.371 Z=100.013), Max=(X=2580.411 Y=2347.371 Z=200.013) RuntimeGrid:None EditorOnly:false LevelBoundsRelevant:true HLODRelevant:false FolderPath:SimulatedCubes FolderGuid:3E37B3AC41F495FF33672D878D9DD948 Parent:00000000000000000000000000000000
   |      - Guid:EF151180445C0B3F37588580CC840D1D Class:StaticMeshActor Name:StaticMeshActor_45 SpatiallyLoaded:true Bounds:IsValid=true, Min=(X=364.319 Y=1244.901 Z=0.013), Max=(X=492.491 Y=1373.073 Z=100.013) RuntimeGrid:None EditorOnly:false LevelBoundsRelevant:true HLODRelevant:false FolderPath:SimulatedCubes FolderGuid:3E37B3AC41F495FF33672D878D9DD948 Parent:00000000000000000000000000000000
   |      - Guid:FC90DA2844FC1BA3BB11BBB7B0F38A9A Class:StaticMeshActor Name:StaticMeshActor_19 SpatiallyLoaded:true Bounds:IsValid=true, Min=(X=600.000 Y=2700.000 Z=0.000), Max=(X=700.000 Y=2800.000 Z=200.000) RuntimeGrid:None EditorOnly:false LevelBoundsRelevant:true HLODRelevant:true FolderPath:Block03 FolderGuid:EED76D7B47CF3E1440F359A1FAC3309E Parent:00000000000000000000000000000000
